<svg xmlns="http://www.w3.org/2000/svg" xmlns:xlink="http://www.w3.org/1999/xlink" preserveAspectRatio="xMidYMid" width="234" height="51" viewBox="0 0 78 17">
  <defs>
    <style>
      .cls-1 {
        fill: #fff;
        fill-rule: evenodd;
      }
    </style>
  </defs>
  <path d="M75.000,14.000 C74.656,14.818 73.231,15.212 72.223,15.212 C71.770,15.212 71.317,14.947 71.317,14.947 L71.567,14.246 C71.567,14.246 71.794,14.371 72.239,14.371 C72.684,14.371 73.458,13.343 73.458,13.343 L74.020,12.003 L71.000,4.000 L72.000,4.000 L74.552,10.788 L77.000,4.000 L78.000,4.000 C78.000,4.000 75.344,13.182 75.000,14.000 ZM69.000,11.000 C69.000,11.000 67.734,12.128 65.870,12.128 C64.007,12.128 63.245,11.158 63.245,9.791 C63.245,8.424 64.457,7.000 67.000,7.000 L69.000,7.000 L69.000,6.000 C69.000,6.000 68.847,4.651 66.667,4.651 C64.487,4.651 64.534,6.167 64.534,6.167 L63.573,6.169 C63.573,6.169 63.659,3.949 66.691,3.949 C69.723,3.949 70.000,6.000 70.000,6.000 L70.000,11.000 C70.000,11.619 70.000,12.000 70.000,12.000 L69.000,12.000 C69.000,12.000 69.000,11.537 69.000,11.000 ZM69.000,8.000 L67.000,8.000 C65.476,8.000 64.194,8.810 64.194,9.861 C64.194,10.913 64.991,11.368 65.952,11.368 C66.914,11.368 69.000,10.577 69.000,9.000 L69.000,8.000 ZM61.000,1.000 L62.000,1.000 L62.000,12.000 L61.000,12.000 L61.000,1.000 ZM56.363,12.128 C54.429,12.128 54.031,11.051 54.000,11.000 L54.000,15.000 L53.000,15.000 L53.000,4.000 L54.000,4.000 L54.000,5.000 C54.031,4.962 54.675,3.949 56.339,3.949 C58.027,3.949 59.855,5.086 59.855,7.976 C59.855,10.866 58.332,12.128 56.363,12.128 ZM56.316,4.697 C54.743,4.697 54.031,6.958 54.000,7.000 L54.000,9.000 C54.031,9.051 54.583,11.403 56.199,11.403 C57.839,11.403 58.941,9.931 58.941,8.038 C58.941,6.146 57.746,4.697 56.316,4.697 ZM46.620,11.074 C47.690,11.074 48.657,10.506 48.657,10.506 C48.657,10.506 47.742,12.003 45.722,12.003 C42.839,12.003 41.682,9.817 41.682,7.873 C41.682,5.928 42.994,3.949 45.515,3.949 C48.036,3.949 48.450,6.066 48.450,6.066 L44.531,7.632 L43.219,7.700 C43.563,9.738 45.192,11.074 46.620,11.074 ZM46.655,6.117 C46.784,5.885 46.517,4.568 45.049,4.568 C44.317,4.568 43.150,5.240 43.150,6.909 C43.150,7.181 43.176,7.442 43.218,7.694 C43.389,7.624 46.529,6.343 46.655,6.117 ZM41.000,12.000 L38.000,12.000 C38.000,12.000 38.995,11.382 39.000,11.000 L39.000,1.000 L38.000,1.000 L38.671,-0.013 L41.000,0.000 C40.425,0.305 40.015,0.574 40.000,2.000 C39.985,3.425 40.000,10.000 40.000,10.000 C40.000,10.544 40.717,11.341 41.144,11.341 C41.533,11.341 41.711,11.415 41.711,11.415 L41.000,12.000 ZM35.732,4.878 C35.732,4.878 36.792,5.576 36.792,7.144 C36.792,8.200 36.253,8.782 35.664,9.340 C35.075,9.898 35.066,10.098 35.066,10.345 C35.066,10.591 35.228,10.864 36.057,11.435 C36.886,12.005 37.458,12.818 37.458,13.886 C37.458,16.126 34.665,17.002 33.033,17.002 C31.401,17.002 29.411,16.343 29.411,14.585 C29.411,11.677 33.964,11.673 33.964,11.673 C33.964,11.673 33.477,11.171 33.477,10.609 C33.477,10.264 33.597,10.004 33.597,10.004 C33.597,10.004 33.460,10.047 33.255,10.047 C31.282,10.047 30.282,8.642 30.282,7.467 C30.282,5.798 31.803,4.249 33.819,4.249 C35.835,4.249 37.748,4.249 37.748,4.249 L36.740,4.845 L35.732,4.878 ZM33.927,12.186 C33.613,12.186 30.910,12.359 30.910,14.210 C30.910,16.062 33.255,16.279 33.806,16.279 C34.357,16.279 36.266,16.126 36.266,14.478 C36.266,13.329 35.344,12.965 34.511,12.231 C34.511,12.231 34.242,12.186 33.927,12.186 ZM33.242,4.849 C32.294,4.849 31.756,5.615 31.756,6.688 C31.756,7.761 32.704,9.536 33.896,9.536 C35.088,9.536 35.318,8.603 35.318,7.914 C35.318,5.934 34.191,4.849 33.242,4.849 ZM25.092,12.003 C22.565,12.003 21.138,9.878 21.138,8.114 C21.138,5.663 23.029,3.984 25.350,3.984 C27.671,3.984 29.390,5.595 29.390,7.959 C29.390,10.325 27.619,12.003 25.092,12.003 ZM24.886,4.498 C23.717,4.498 22.703,5.561 22.703,7.051 C22.703,8.542 23.607,11.489 25.522,11.489 C27.437,11.489 27.705,9.535 27.705,8.748 C27.705,6.459 26.554,4.498 24.886,4.498 ZM16.058,12.003 C13.530,12.003 12.102,9.877 12.102,8.112 C12.102,5.660 13.994,3.980 16.315,3.980 C18.638,3.980 20.358,5.592 20.358,7.958 C20.358,10.323 18.586,12.003 16.058,12.003 ZM15.851,4.494 C14.682,4.494 13.667,5.557 13.667,7.049 C13.667,8.540 14.572,11.489 16.488,11.489 C18.404,11.489 18.672,9.534 18.672,8.746 C18.672,6.457 17.519,4.494 15.851,4.494 ZM6.775,8.772 L8.000,8.000 L12.000,8.000 C12.000,8.000 10.809,8.426 10.809,9.382 C10.809,10.340 10.809,11.329 10.809,11.329 C10.809,11.329 8.296,12.150 6.059,12.150 C1.733,12.150 -0.008,8.980 -0.008,6.471 C-0.008,3.600 2.294,0.567 6.255,0.567 C9.508,0.567 10.809,1.886 10.809,1.886 L9.508,3.109 L8.906,3.270 L9.280,2.658 C9.280,2.658 8.125,1.146 6.076,1.146 C4.026,1.146 1.668,2.538 1.668,5.827 C1.668,8.522 3.855,11.473 7.231,11.473 C8.398,11.473 9.166,11.039 9.166,11.039 L9.166,8.627 C9.166,8.627 7.430,8.607 6.775,8.772 Z" class="cls-1"/>
</svg>
